<?xml version="1.0" encoding="UTF-8" standalone="no"?>
<!-- Created with Inkscape (http://www.inkscape.org/) -->

<svg
   width="798"
   height="487"
   viewBox="0 0 798 487"
   version="1.1"
   id="svg1"
   xml:space="preserve"
   inkscape:version="1.3.1 (91b66b0783, 2023-11-16)"
   sodipodi:docname="port-ed.svg"
   inkscape:export-filename="tx-seq-ed.svg"
   inkscape:export-xdpi="96"
   inkscape:export-ydpi="96"
   xmlns:inkscape="http://www.inkscape.org/namespaces/inkscape"
   xmlns:sodipodi="http://sodipodi.sourceforge.net/DTD/sodipodi-0.dtd"
   xmlns:xlink="http://www.w3.org/1999/xlink"
   xmlns="http://www.w3.org/2000/svg"
   xmlns:svg="http://www.w3.org/2000/svg"><sodipodi:namedview
     id="namedview1"
     pagecolor="#ffffff"
     bordercolor="#000000"
     borderopacity="0.25"
     inkscape:showpageshadow="2"
     inkscape:pageopacity="0.0"
     inkscape:pagecheckerboard="0"
     inkscape:deskcolor="#d1d1d1"
     inkscape:document-units="mm"
     inkscape:clip-to-page="false"
     inkscape:zoom="1.0814955"
     inkscape:cx="392.97436"
     inkscape:cy="223.3019"
     inkscape:window-width="1920"
     inkscape:window-height="1013"
     inkscape:window-x="-9"
     inkscape:window-y="-9"
     inkscape:window-maximized="1"
     inkscape:current-layer="layer1" /><defs
     id="defs1"><rect
       x="143.05498"
       y="164.64003"
       width="37.461594"
       height="37.40523"
       id="rect4" /></defs><g
     inkscape:label="Layer 1"
     inkscape:groupmode="layer"
     id="layer1"><image
       width="798"
       height="487"
       preserveAspectRatio="none"
       xlink:href="port.png"
       id="image1"
       x="0"
       y="0" /><rect
       style="fill:none;stroke:#ff0000;stroke-width:4;stroke-linecap:round;stroke-linejoin:round;stroke-dasharray:none;stroke-opacity:1"
       id="rect3-9"
       width="259.88828"
       height="382.63156"
       x="473.21576"
       y="97.360031"
       ry="4.6232281" /><rect
       style="fill:none;stroke:#ff0000;stroke-width:4;stroke-linecap:round;stroke-linejoin:round"
       id="rect1"
       width="30.744448"
       height="28.936258"
       x="477.14551"
       y="68.423775"
       rx="0"
       ry="0" /><path
       style="fill:none;fill-opacity:1;stroke:#ff0000;stroke-width:3.99874;stroke-linecap:round;stroke-linejoin:round;stroke-opacity:1"
       d="M 679.93813,67.632794 633.24353,20.938193"
       id="path1" /><path
       style="fill:none;fill-opacity:1;stroke:#ff0000;stroke-width:3.99874;stroke-linecap:round;stroke-linejoin:round;stroke-opacity:1"
       d="M 766.89663,67.819264 720.20203,21.124663"
       id="path1-3" /><circle
       style="fill:#ffffff;fill-opacity:1;stroke:#ff0000;stroke-width:3.99874;stroke-linecap:round;stroke-linejoin:round;stroke-dasharray:none"
       id="path3-5"
       cx="681.9375"
       cy="69.632164"
       r="6.8192611" /><circle
       style="fill:#ffffff;fill-opacity:1;stroke:#ff0000;stroke-width:3.99874;stroke-linecap:round;stroke-linejoin:round;stroke-dasharray:none"
       id="path3-5-3"
       cx="768.896"
       cy="69.818634"
       r="6.8192611" /><path
       style="fill:none;fill-opacity:1;stroke:#ff0000;stroke-width:3.99874;stroke-linecap:round;stroke-linejoin:round;stroke-opacity:1"
       d="M 471.21639,166.87463 H 405.18025"
       id="path1-3-8" /><circle
       style="fill:#ffffff;fill-opacity:1;stroke:#ff0000;stroke-width:3.99874;stroke-linecap:round;stroke-linejoin:round;stroke-dasharray:none"
       id="path3-5-3-7"
       cx="473.21576"
       cy="166.87463"
       r="6.8192611" /><g
       id="g13"
       transform="translate(215.33007,92.095017)"><g
         id="g14"
         transform="translate(-0.69348416,1.1558069)"><circle
           style="fill:#ff4853;fill-opacity:1;stroke:#ff0000;stroke-width:4;stroke-linecap:round;stroke-linejoin:round;stroke-dasharray:none;stroke-opacity:1"
           id="path3-3-3"
           r="26.479837"
           cy="-60.148376"
           cx="432.96164" /><text
           xml:space="preserve"
           id="text4-0-11"
           style="font-style:normal;font-variant:normal;font-weight:normal;font-stretch:normal;font-size:37.3333px;font-family:Arial;-inkscape-font-specification:'Arial, Normal';font-variant-ligatures:normal;font-variant-caps:normal;font-variant-numeric:normal;font-variant-east-asian:normal;text-align:center;white-space:pre;shape-inside:url(#rect13);display:inline;fill:#ffffff;fill-opacity:1;stroke:#ff0000;stroke-width:0;stroke-linecap:round;stroke-linejoin:round;stroke-dasharray:none;stroke-opacity:1"
           x="431.39395"
           y="-46.968704"
           transform="translate(0.86723831,13.30746)"><tspan
             x="421.7767"
             y="-60.27616"
             id="tspan2">1</tspan></text><rect
           style="fill:none;stroke:none;stroke-width:3.99874;stroke-linecap:round;stroke-linejoin:round;stroke-dasharray:none"
           id="rect13"
           width="70.285988"
           height="70.285988"
           x="397.01492"
           y="-93.904648" /></g></g><g
       id="g13-2"
       transform="translate(302.28857,92.281487)"><g
         id="g14-0"
         transform="translate(-0.69348416,1.1558069)"><circle
           style="fill:#ff4853;fill-opacity:1;stroke:#ff0000;stroke-width:4;stroke-linecap:round;stroke-linejoin:round;stroke-dasharray:none;stroke-opacity:1"
           id="path3-3-2"
           r="26.479837"
           cy="-60.148376"
           cx="432.96164" /><text
           xml:space="preserve"
           id="text4-0-2"
           style="font-style:normal;font-variant:normal;font-weight:normal;font-stretch:normal;font-size:37.3333px;font-family:Arial;-inkscape-font-specification:'Arial, Normal';font-variant-ligatures:normal;font-variant-caps:normal;font-variant-numeric:normal;font-variant-east-asian:normal;text-align:center;white-space:pre;shape-inside:url(#rect13-9);display:inline;fill:#ffffff;fill-opacity:1;stroke:#ff0000;stroke-width:0;stroke-linecap:round;stroke-linejoin:round;stroke-dasharray:none;stroke-opacity:1"
           x="431.39395"
           y="-46.968704"
           transform="translate(0.86723831,13.30746)"><tspan
             x="421.7767"
             y="-60.27616"
             id="tspan3">2</tspan></text><rect
           style="fill:none;stroke:none;stroke-width:3.99874;stroke-linecap:round;stroke-linejoin:round;stroke-dasharray:none"
           id="rect13-9"
           width="70.285988"
           height="70.285988"
           x="397.01492"
           y="-93.904648" /></g></g><g
       id="g13-2-8"
       transform="translate(-20.549673,158.83687)"><g
         id="g14-0-2"
         transform="translate(-0.69348416,68.186138)"><circle
           style="fill:#ff4853;fill-opacity:1;stroke:#ff0000;stroke-width:4;stroke-linecap:round;stroke-linejoin:round;stroke-dasharray:none;stroke-opacity:1"
           id="path3-3-2-0"
           r="26.479837"
           cy="-60.148376"
           cx="432.96164" /><text
           xml:space="preserve"
           id="text4-0-2-9"
           style="font-style:normal;font-variant:normal;font-weight:normal;font-stretch:normal;font-size:37.3333px;font-family:Arial;-inkscape-font-specification:'Arial, Normal';font-variant-ligatures:normal;font-variant-caps:normal;font-variant-numeric:normal;font-variant-east-asian:normal;text-align:center;white-space:pre;shape-inside:url(#rect13-9-7);display:inline;fill:#ffffff;fill-opacity:1;stroke:#ff0000;stroke-width:0;stroke-linecap:round;stroke-linejoin:round;stroke-dasharray:none;stroke-opacity:1"
           x="431.39395"
           y="-46.968704"
           transform="translate(0.86723831,13.30746)"><tspan
             x="421.7767"
             y="-60.27616"
             id="tspan4">3</tspan></text><rect
           style="fill:none;stroke:none;stroke-width:3.99874;stroke-linecap:round;stroke-linejoin:round;stroke-dasharray:none"
           id="rect13-9-7"
           width="70.285988"
           height="70.285988"
           x="397.01492"
           y="-93.904648" /></g></g></g></svg>
